{
  "diversification": "Единственный правильный вариант обеспечить ваш инвестиционный портфель стабильным и высоким доходом на длительном промежутке времени - инвестировать в разных заемщиков.\n\nУровни диверсификации:\nОчень высокий - более 20 заемщиков\nВысокий - от 15 до 20 заемщиков\nСредний - от 10 до 15 заемщиков\nНизкий - менее 10 заемщиков",
  "risk": "Не инвестируйте значительное количество денежных средств в одного заёмщика. В случае дефолта, ваш инвестиционный портфель уже не сможет восстановиться или будет восстанавливаться слишком долго.\n\nУровни риска на крупнейшего заемщика:\nОчень высокий - более 20%\nВысокий - от 15 до 20%\nСредний - от 10 до 15%\nНизкий - менее 10%"
}
