<svg xmlns="http://www.w3.org/2000/svg" xmlns:xlink="http://www.w3.org/1999/xlink" viewBox="0 0 10.047 18">
  <defs>
    <style>
      .cls-1 {
        fill: none;
      }

      .cls-2 {
        clip-path: url(#clip-path);
      }

      .cls-3 {
        fill: #f2625a;
      }
    </style>
    <clipPath id="clip-path">
      <rect class="cls-1" width="10.047" height="18"/>
    </clipPath>
  </defs>
  <g id="Repeat_Grid_1" data-name="Repeat Grid 1" class="cls-2" transform="translate(10.047 18) rotate(180)">
    <g transform="translate(-15 29)">
      <path id="Arrow" class="cls-3" d="M8.157,17.682.325,10.018A1.067,1.067,0,0,1,.03,9,1.066,1.066,0,0,1,.325,7.982L8.157.318a1.123,1.123,0,0,1,1.566,0,1.067,1.067,0,0,1,0,1.533L2.417,9,9.723,16.15a1.067,1.067,0,0,1,0,1.533,1.124,1.124,0,0,1-1.566,0Z" transform="translate(25.047 -11) rotate(-180)"/>
    </g>
  </g>
</svg>
